dumpfile.vcd
$date
	Wed Feb 14 14:08:29 2024
$end
$version
	QuestaSim Version 10.6c
$end
$timescale
	1ns
$end

$scope module uvm_root $end
$upscope $end

$scope module top $end

$scope module DUT $end
$var wire 1 ! s $end
$var wire 1 " r $end
$var reg 1 # q $end
$var reg 1 $ qbar $end
$upscope $end
$upscope $end

$scope begin uvm_pkg $end
$var parameter 32 % UVM_HDL_MAX_WIDTH $end
$var parameter 32 & UVM_STREAMBITS $end
$var parameter 32 ' UVM_RADIX $end
$var parameter 32 ( UVM_MACRO_NUMFLAGS $end
$var parameter 32 ) UVM_DEFAULT $end
$var parameter 32 * UVM_ALL_ON $end
$var parameter 32 + UVM_FLAGS_ON $end
$var parameter 32 , UVM_FLAGS_OFF $end
$var parameter 32 - UVM_COPY $end
$var parameter 32 . UVM_NOCOPY $end
$var parameter 32 / UVM_COMPARE $end
$var parameter 32 0 UVM_NOCOMPARE $end
$var parameter 32 1 UVM_PRINT $end
$var parameter 32 2 UVM_NOPRINT $end
$var parameter 32 3 UVM_RECORD $end
$var parameter 32 4 UVM_NORECORD $end
$var parameter 32 5 UVM_PACK $end
$var parameter 32 6 UVM_NOPACK $end
$var parameter 32 7 UVM_PHYSICAL $end
$var parameter 32 8 UVM_ABSTRACT $end
$var parameter 32 9 UVM_READONLY $end
$var parameter 32 : UVM_NODEFPRINT $end
$var parameter 32 ; UVM_MACRO_EXTRAS $end
$var parameter 32 < UVM_FLAGS $end
$var parameter 32 = UVM_UNPACK $end
$var parameter 32 > UVM_CHECK_FIELDS $end
$var parameter 32 ? UVM_END_DATA_EXTRA $end
$var parameter 32 @ UVM_START_FUNCS $end
$var parameter 32 A UVM_SET $end
$var parameter 32 B UVM_SETINT $end
$var parameter 32 C UVM_SETOBJ $end
$var parameter 32 D UVM_SETSTR $end
$var parameter 32 E UVM_END_FUNCS $end
$var parameter 32 F UVM_STR_CRC_POLYNOMIAL $end
$var parameter 32 G UVM_STDOUT $end
$var parameter 32 H UVM_LINE_WIDTH $end
$var parameter 32 I UVM_NUM_LINES $end
$var parameter 32 J UVM_SMALL_STRING $end
$var parameter 32 K UVM_LARGE_STRING $end
$var reg 1 L uvm_start_uvm_declarations $end
$var integer 32 M uvm_global_random_seed $end
$var integer 32 N UVM_UNBOUNDED_CONNECTIONS $end

$scope function uvm_hdl_check_path $end
$var integer 32 O uvm_hdl_check_path $end
$upscope $end

$scope function uvm_hdl_deposit $end
$var integer 32 P uvm_hdl_deposit $end
$var reg 1024 Q value [1023:0] $end
$upscope $end

$scope function uvm_hdl_force $end
$var integer 32 R uvm_hdl_force $end
$var reg 1024 S value [1023:0] $end
$upscope $end

$scope task uvm_hdl_force_time $end
$var reg 1024 T value [1023:0] $end
$var time 64 U force_time $end
$upscope $end

$scope function uvm_hdl_release_and_read $end
$var integer 32 V uvm_hdl_release_and_read $end
$var reg 1024 W value [1023:0] $end
$upscope $end

$scope function uvm_hdl_release $end
$var integer 32 X uvm_hdl_release $end
$upscope $end

$scope function uvm_hdl_read $end
$var integer 32 Y uvm_hdl_read $end
$var reg 1024 Z value [1023:0] $end
$upscope $end

$scope function uvm_dpi_get_next_arg_c $end
$upscope $end

$scope function uvm_dpi_get_tool_name_c $end
$upscope $end

$scope function uvm_dpi_get_tool_version_c $end
$upscope $end

$scope function uvm_dpi_get_next_arg $end
$upscope $end

$scope function uvm_dpi_get_tool_name $end
$upscope $end

$scope function uvm_dpi_get_tool_version $end
$upscope $end

$scope function uvm_dpi_regcomp $end
$upscope $end

$scope function uvm_dpi_regexec $end
$var integer 32 [ uvm_dpi_regexec $end
$upscope $end

$scope function uvm_dpi_regfree $end
$upscope $end

$scope function uvm_re_match $end
$var integer 32 \ uvm_re_match $end
$upscope $end

$scope function uvm_dump_re_cache $end
$upscope $end

$scope function uvm_glob_to_re $end
$upscope $end

$scope function uvm_revision_string $end
$upscope $end

$scope function uvm_radix_to_string $end
$var integer 32 ] radix $end
$upscope $end

$scope function uvm_instance_scope $end
$var reg 8 ^ c [7:0] $end
$var integer 32 _ pos $end
$upscope $end

$scope function uvm_oneway_hash $end
$var integer 32 ` uvm_oneway_hash $end
$var integer 32 a seed $end
$var reg 1 b msb $end
$var reg 8 c current_byte [7:0] $end
$var reg 32 d crc1 [31:0] $end
$upscope $end

$scope function uvm_create_random_seed $end
$var integer 32 e uvm_create_random_seed $end
$upscope $end

$scope function uvm_object_value_str $end
$upscope $end

$scope function uvm_leaf_scope $end
$var reg 8 f scope_separator [7:0] $end
$var reg 8 g bracket_match [7:0] $end
$var integer 32 h pos $end
$var integer 32 i bmatches $end
$upscope $end

$scope function uvm_vector_to_string $end
$var reg 4096 j value [4095:0] $end
$var integer 32 k size $end
$var integer 32 l radix $end
$upscope $end

$scope function uvm_get_array_index_int $end
$var integer 32 m uvm_get_array_index_int $end
$var reg 1 n is_wildcard $end
$var integer 32 o i $end
$upscope $end

$scope function uvm_get_array_index_string $end
$var reg 1 p is_wildcard $end
$var integer 32 q i $end
$upscope $end

$scope function uvm_is_array $end
$var reg 1 r uvm_is_array $end
$upscope $end

$scope function uvm_has_wildcard $end
$upscope $end

$scope task run_test $end
$upscope $end

$scope function global_stop_request $end
$upscope $end

$scope function set_global_timeout $end
$var time 64 s timeout $end
$var reg 1 t overridable $end
$upscope $end

$scope function set_global_stop_timeout $end
$var time 64 u timeout $end
$upscope $end

$scope function uvm_report_enabled $end
$var reg 1 v uvm_report_enabled $end
$var integer 32 w verbosity $end
$var reg 2 x severity [1:0] $end
$upscope $end

$scope function uvm_report $end
$var reg 2 y severity [1:0] $end
$var integer 32 z verbosity $end
$var integer 32 { line $end
$upscope $end

$scope function uvm_report_info $end
$var integer 32 | verbosity $end
$var integer 32 } line $end
$upscope $end

$scope function uvm_report_warning $end
$var integer 32 ~ verbosity $end
$var integer 32 !! line $end
$upscope $end

$scope function uvm_report_error $end
$var integer 32 "! verbosity $end
$var integer 32 #! line $end
$upscope $end

$scope function uvm_report_fatal $end
$var integer 32 $! verbosity $end
$var integer 32 %! line $end
$upscope $end

$scope function uvm_string_to_severity $end
$var reg 1 &! uvm_string_to_severity $end
$var reg 2 '! sev [1:0] $end
$upscope $end

$scope function uvm_string_to_action $end
$upscope $end

$scope function set_config_int $end
$var reg 4096 (! value [4095:0] $end
$upscope $end

$scope function set_config_object $end
$var reg 1 )! clone $end
$upscope $end

$scope function set_config_string $end
$upscope $end

$scope function uvm_is_match $end
$var reg 1 *! uvm_is_match $end
$upscope $end

$scope function uvm_string_to_bits $end
$var reg 115200 +! uvm_string_to_bits [115199:0] $end
$upscope $end

$scope function uvm_bits_to_string $end
$var reg 115200 ,! str [115199:0] $end
$upscope $end

$scope task uvm_wait_for_nba_region $end
$var integer 32 -! nba $end
$var integer 32 .! next_nba $end
$upscope $end

$scope function uvm_split_string $end
$upscope $end

$scope function uvm_hdl_concat2string $end
$upscope $end
$upscope $end

$scope begin tb_pkg $end
$upscope $end

$scope begin std $end
$upscope $end

$scope begin questa_uvm_pkg $end
$upscope $end
$enddefinitions $end
#0
$dumpvars
x#
x$
0p
0r
0&!
b0 '!
bx +!
bx ,!
bx Q
bx S
bx T
bx W
bx Z
1L
1b
b1101110 c
b11110111101110000100100010111 d
bx j
0n
0t
0v
b0 x
b0 y
bx (!
0)!
0*!
b10000000000 %
b1000000000000 &
b1111000000000000000000000000 '
b10001 (
b10101010101 )
b101010101 *
b101010101 +
b0 ,
b1 -
b10 .
b100 /
b1000 0
b10000 1
b100000 2
b1000000 3
b10000000 4
b100000000 5
b1000000000 6
b10000000000000 7
b100000000000000 8
b1000000000000000 9
b10000000000000000 :
b100000000000000000 ;
b100000000000000001 <
b100000000000000010 =
b100000000000000011 >
b100000000000000100 ?
b100000000000000101 @
b100000000000000110 A
b100000000000000110 B
b100000000000000111 C
b100000000000001000 D
b100000000000001000 E
b100110000010001110110110110 F
b1 G
b1111000 H
b1111000 I
b1110111111 J
b11100000111111111 K
b0 ]
b0 f
b0 g
b0 h
b0 i
b0 q
b0 O
b0 P
b0 R
b0 V
b0 X
b0 Y
b1 [
b0 \
b1101001011000001111100000011110 M
b101110 ^
b111 _
b1010010010101110000000011111111 `
b1101001011000001111100000011110 a
b11010101101100111100100010100010 e
b0 k
b0 l
b0 m
b0 o
b111110100 w
b0 z
b0 {
b11001000 |
b11011001 }
b0 ~
b0 !!
b0 "!
b0 #!
b0 $!
b0 %!
b100100 -!
b100100 .!
b11111111111111111111111111111111 N
bx U
bx s
bx u
0!
0"
$end
#5
b100101 .!
1!
b1010010010101110000000100000000 e
b100101 -!
1#
#10
b100110 .!
b1010010010101110000000100000010 e
b100110 -!
#15
b100111 .!
0!
1"
b1010010010101110000000100000101 e
b100111 -!
0#
0$
#20
b101000 .!
b1010010010101110000000100001001 e
b101000 -!
#25
b101001 .!
1!
b1010010010101110000000100001110 e
b101001 -!
x#
1$
#30
b101010 .!
0"
b1010010010101110000000100010100 e
b101010 -!
1#
x$
#35
b101011 .!
0!
b1010010010101110000000100011011 e
b101011 -!
0$
#40
b101100 .!
b1010010010101110000000100100011 e
b101100 -!
#45
b101101 .!
1"
b1010010010101110000000100101100 e
b101101 -!
0#
#50
b101110 .!
0"
b1010010010101110000000100110110 e
b101110 -!
1$
#55
b101111 .!
1!
1"
b1010010010101110000000101000001 e
b101111 -!
x#
#60
b110000 .!
b1010010010101110000000101001101 e
b110000 -!
#65
b110001 .!
0"
b1010010010101110000000101011010 e
b110001 -!
1#
x$
#70
b110010 .!
0!
b1010010010101110000000101101000 e
b110010 -!
0$
#75
b110011 .!
1"
b1010010010101110000000101110111 e
b110011 -!
0#
#80
b110100 .!
0"
b1010010010101110000000110000111 e
b110100 -!
1$
#85
b110101 .!
b1010010010101110000000110011000 e
b110101 -!
#90
b110110 .!
1!
b1010010010101110000000110101010 e
b110110 -!
1#
#95
b110111 .!
0!
b1010010010101110000000110111101 e
b110111 -!
0$
#100
b111000 .!
1"
b1010010010101110000000111010001 e
b111000 -!
0#
#105
b111001 .!
0"
b1010010010101110000000111100110 e
b111001 -!
1$
#110
b111010 .!
1!
b1010010010101110000000111111100 e
b111010 -!
1#
#115
b111011 .!
0!
1"
b1010010010101110000001000010011 e
b111011 -!
0#
0$
#120
b111100 .!
1!
0"
b1010010010101110000001000101011 e
b111100 -!
1#
1$
#125
b111101 .!
0!
b1010010010101110000001001000100 e
b111101 -!
0$
#130
b111110 .!
1"
b1010010010101110000001001011110 e
b111110 -!
0#
#135
b111111 .!
1!
0"
b1010010010101110000001001111001 e
b111111 -!
1#
1$
#140
b1000000 .!
0!
b1010010010101110000001010010101 e
b1000000 -!
0$
#145
b1000001 .!
1"
b1010010010101110000001010110010 e
b1000001 -!
0#
#150
b1000010 .!
1!
b1010010010101110000001011010000 e
b1000010 -!
x#
1$
#155
b1000011 .!
b1010010010101110000001011101111 e
b1000011 -!
#160
b1000100 .!
0!
b1010010010101110000001100001111 e
b1000100 -!
0#
x$
#165
b1000101 .!
b1010010010101110000001100110000 e
b1000101 -!
#170
b1000110 .!
0"
b1010010010101110000001101010010 e
b1000110 -!
1$
#175
b1000111 .!
1!
1"
b1010010010101110000001101110101 e
b1000111 -!
x#
#180
b1001000 .!
0!
b1010010010101110000001110011001 e
b1001000 -!
0#
x$
#185
b1001001 .!
b1010010010101110000001110111110 e
b1001001 -!
#190
b1001010 .!
0"
b1010010010101110000001111100100 e
b1001010 -!
1$
#195
b1001011 .!
1!
b1010010010101110000010000001011 e
b1001011 -!
1#
#200
b1001100 .!
0!
1"
b1010010010101110000010000110011 e
b1001100 -!
0#
0$
#205
b1001101 .!
b1010010010101110000010001011100 e
b1001101 -!
#210
b1001110 .!
1!
0"
b1010010010101110000010010000110 e
b1001110 -!
1#
1$
#215
b1001111 .!
1"
b1010010010101110000010010110001 e
b1001111 -!
x#
0$
#220
b1010000 .!
b1010010010101110000010011011101 e
b1010000 -!
#225
b1010001 .!
0!
b1010010010101110000010100001010 e
b1010001 -!
0#
x$
#230
b1010010 .!
1!
b1010010010101110000010100111000 e
b1010010 -!
x#
1$
#235
b1010011 .!
0!
b1010010010101110000010101100111 e
b1010011 -!
0#
x$
#240
b1010100 .!
1!
b1010010010101110000010110010111 e
b1010100 -!
x#
1$
#245
b1010101 .!
0!
b1010010010101110000010111001000 e
b1010101 -!
0#
x$
