transcript
# vsim -coverage -vopt work.top -c -do "coverage save -onexit -directive -codeAll sr_coverage; run -all; exit" 
# Start time: 14:08:25 on Feb 14,2024
# ** Note: (vsim-3812) Design is being optimized...
# ** Warning: sr_sequence.sv(24): (vopt-2240) Treating stand-alone use of function 'randomize' as an implicit VOID cast.
# ** Warning: sr_sequence.sv(55): (vopt-2240) Treating stand-alone use of function 'randomize' as an implicit VOID cast.
# ** Warning: sr_sequence.sv(89): (vopt-2240) Treating stand-alone use of function 'randomize' as an implicit VOID cast.
# ** Warning: sr_sequence.sv(123): (vopt-2240) Treating stand-alone use of function 'randomize' as an implicit VOID cast.
# //  Questa Sim
# //  Version 10.6c linux Jul 25 2017
# //
# //  Copyright 1991-2017 Mentor Graphics Corporation
# //  All Rights Reserved.
# //
# //  QuestaSim and its associated documentation contain trade
# //  secrets and commercial or financial information that are the property of
# //  Mentor Graphics Corporation and are privileged, confidential,
# //  and exempt from disclosure under the Freedom of Information Act,
# //  5 U.S.C. Section 552. Furthermore, this information
# //  is prohibited from disclosure under the Trade Secrets Act,
# //  18 U.S.C. Section 1905.
# //
# Loading sv_std.std
# Loading work.intf(fast)
# Loading mtiUvm.uvm_pkg
# Loading work.tb_pkg(fast)
# Loading work.top(fast)
# Loading work.intf(fast)
# Loading work.sr(fast)
# Loading mtiUvm.questa_uvm_pkg(fast)
# Loading /tools/mentor/questasim_10.6c/questasim/uvm-1.1d/linux/uvm_dpi.so
# coverage save -onexit -directive -codeAll sr_coverage
#  run -all
# ----------------------------------------------------------------
# UVM-1.1d
# (C) 2007-2013 Mentor Graphics Corporation
# (C) 2007-2013 Cadence Design Systems, Inc.
# (C) 2006-2013 Synopsys, Inc.
# (C) 2011-2013 Cypress Semiconductor Corp.
# ----------------------------------------------------------------
# 
#   ***********       IMPORTANT RELEASE NOTES         ************
# 
#   You are using a version of the UVM library that has been compiled
#   with `UVM_NO_DEPRECATED undefined.
#   See http://www.eda.org/svdb/view.php?id=3313 for more details.
# 
#   You are using a version of the UVM library that has been compiled
#   with `UVM_OBJECT_MUST_HAVE_CONSTRUCTOR undefined.
#   See http://www.eda.org/svdb/view.php?id=3770 for more details.
# 
#       (Specify +UVM_NO_RELNOTES to turn off this notice)
# 
# UVM_INFO verilog_src/questa_uvm_pkg-1.2/src/questa_uvm_pkg.sv(215) @ 0: reporter [Questa UVM] QUESTA_UVM-1.2.3
# UVM_INFO verilog_src/questa_uvm_pkg-1.2/src/questa_uvm_pkg.sv(217) @ 0: reporter [Questa UVM]  questa_uvm::init(+struct)
# UVM_INFO @ 0: reporter [RNTST] Running test sr_test...
# start_of_simulation_phase
# s=0.000000 r=0.000000 axb=0 coverage %=41.67
# UVM_INFO sr_scoreboard.sv(81) @ 5: uvm_test_top.env_h.scoreboard_h [write_mon OUT ]  s=0  r=0 ||  q=x qbar=x
# UVM_INFO sr_scoreboard.sv(49) @ 5: uvm_test_top.env_h.scoreboard_h [write_drv STIM]  s=1  r=0
# s=1.000000 r=0.000000 axb=0 coverage %=66.67
# UVM_INFO sr_scoreboard.sv(81) @ 10: uvm_test_top.env_h.scoreboard_h [write_mon OUT ]  s=1  r=0 ||  q=1 qbar=x
# UVM_INFO sr_scoreboard.sv(49) @ 10: uvm_test_top.env_h.scoreboard_h [write_drv STIM]  s=1  r=0
# s=1.000000 r=0.000000 axb=0 coverage %=66.67
# UVM_INFO sr_scoreboard.sv(81) @ 15: uvm_test_top.env_h.scoreboard_h [write_mon OUT ]  s=1  r=0 ||  q=1 qbar=x
# UVM_INFO sr_scoreboard.sv(49) @ 15: uvm_test_top.env_h.scoreboard_h [write_drv STIM]  s=0  r=1
# s=0.000000 r=1.000000 axb=0 coverage %=91.67
# UVM_INFO sr_scoreboard.sv(81) @ 20: uvm_test_top.env_h.scoreboard_h [write_mon OUT ]  s=0  r=1 ||  q=0 qbar=0
# UVM_INFO sr_scoreboard.sv(49) @ 20: uvm_test_top.env_h.scoreboard_h [write_drv STIM]  s=0  r=1
# s=0.000000 r=1.000000 axb=0 coverage %=91.67
# UVM_INFO sr_scoreboard.sv(81) @ 25: uvm_test_top.env_h.scoreboard_h [write_mon OUT ]  s=0  r=1 ||  q=0 qbar=0
# UVM_INFO sr_scoreboard.sv(49) @ 25: uvm_test_top.env_h.scoreboard_h [write_drv STIM]  s=1  r=1
# s=1.000000 r=1.000000 axb=1 coverage %=100.00
# UVM_INFO sr_scoreboard.sv(81) @ 30: uvm_test_top.env_h.scoreboard_h [write_mon OUT ]  s=1  r=1 ||  q=x qbar=1
# UVM_INFO sr_scoreboard.sv(49) @ 30: uvm_test_top.env_h.scoreboard_h [write_drv STIM]  s=1  r=0
# s=1.000000 r=0.000000 axb=0 coverage %=100.00
# UVM_INFO sr_scoreboard.sv(81) @ 35: uvm_test_top.env_h.scoreboard_h [write_mon OUT ]  s=1  r=0 ||  q=1 qbar=x
# UVM_INFO sr_scoreboard.sv(49) @ 35: uvm_test_top.env_h.scoreboard_h [write_drv STIM]  s=0  r=0
# s=0.000000 r=0.000000 axb=0 coverage %=100.00
# UVM_INFO sr_scoreboard.sv(81) @ 40: uvm_test_top.env_h.scoreboard_h [write_mon OUT ]  s=0  r=0 ||  q=1 qbar=0
# UVM_INFO sr_scoreboard.sv(49) @ 40: uvm_test_top.env_h.scoreboard_h [write_drv STIM]  s=0  r=0
# UVM_INFO sr_scoreboard.sv(98) @ 40: uvm_test_top.env_h.scoreboard_h [
#  [ PASS ]  s=0  r=0 ||  q=1 qbar=0
# s=0.000000 r=0.000000 axb=0 coverage %=100.00
# UVM_INFO sr_scoreboard.sv(81) @ 45: uvm_test_top.env_h.scoreboard_h [write_mon OUT ]  s=0  r=0 ||  q=1 qbar=0
# UVM_INFO sr_scoreboard.sv(49) @ 45: uvm_test_top.env_h.scoreboard_h [write_drv STIM]  s=0  r=1
# UVM_INFO sr_scoreboard.sv(98) @ 45: uvm_test_top.env_h.scoreboard_h [
#  [ PASS ]  s=0  r=0 ||  q=1 qbar=0
# s=0.000000 r=1.000000 axb=0 coverage %=100.00
# UVM_INFO sr_scoreboard.sv(81) @ 50: uvm_test_top.env_h.scoreboard_h [write_mon OUT ]  s=0  r=1 ||  q=0 qbar=0
# UVM_INFO sr_scoreboard.sv(49) @ 50: uvm_test_top.env_h.scoreboard_h [write_drv STIM]  s=0  r=0
# s=0.000000 r=0.000000 axb=0 coverage %=100.00
# UVM_INFO sr_scoreboard.sv(81) @ 55: uvm_test_top.env_h.scoreboard_h [write_mon OUT ]  s=0  r=0 ||  q=0 qbar=1
# UVM_INFO sr_scoreboard.sv(49) @ 55: uvm_test_top.env_h.scoreboard_h [write_drv STIM]  s=1  r=1
# UVM_INFO sr_scoreboard.sv(98) @ 55: uvm_test_top.env_h.scoreboard_h [
#  [ PASS ]  s=0  r=0 ||  q=0 qbar=1
# s=1.000000 r=1.000000 axb=1 coverage %=100.00
# UVM_INFO sr_scoreboard.sv(81) @ 60: uvm_test_top.env_h.scoreboard_h [write_mon OUT ]  s=1  r=1 ||  q=x qbar=1
# UVM_INFO sr_scoreboard.sv(49) @ 60: uvm_test_top.env_h.scoreboard_h [write_drv STIM]  s=1  r=1
# s=1.000000 r=1.000000 axb=1 coverage %=100.00
# UVM_INFO sr_scoreboard.sv(81) @ 65: uvm_test_top.env_h.scoreboard_h [write_mon OUT ]  s=1  r=1 ||  q=x qbar=1
# UVM_INFO sr_scoreboard.sv(49) @ 65: uvm_test_top.env_h.scoreboard_h [write_drv STIM]  s=1  r=0
# s=1.000000 r=0.000000 axb=0 coverage %=100.00
# UVM_INFO sr_scoreboard.sv(81) @ 70: uvm_test_top.env_h.scoreboard_h [write_mon OUT ]  s=1  r=0 ||  q=1 qbar=x
# UVM_INFO sr_scoreboard.sv(49) @ 70: uvm_test_top.env_h.scoreboard_h [write_drv STIM]  s=0  r=0
# s=0.000000 r=0.000000 axb=0 coverage %=100.00
# UVM_INFO sr_scoreboard.sv(81) @ 75: uvm_test_top.env_h.scoreboard_h [write_mon OUT ]  s=0  r=0 ||  q=1 qbar=0
# UVM_INFO sr_scoreboard.sv(49) @ 75: uvm_test_top.env_h.scoreboard_h [write_drv STIM]  s=0  r=1
# UVM_INFO sr_scoreboard.sv(98) @ 75: uvm_test_top.env_h.scoreboard_h [
#  [ PASS ]  s=0  r=0 ||  q=1 qbar=0
# s=0.000000 r=1.000000 axb=0 coverage %=100.00
# UVM_INFO sr_scoreboard.sv(81) @ 80: uvm_test_top.env_h.scoreboard_h [write_mon OUT ]  s=0  r=1 ||  q=0 qbar=0
# UVM_INFO sr_scoreboard.sv(49) @ 80: uvm_test_top.env_h.scoreboard_h [write_drv STIM]  s=0  r=0
# s=0.000000 r=0.000000 axb=0 coverage %=100.00
# UVM_INFO sr_scoreboard.sv(81) @ 85: uvm_test_top.env_h.scoreboard_h [write_mon OUT ]  s=0  r=0 ||  q=0 qbar=1
# UVM_INFO sr_scoreboard.sv(49) @ 85: uvm_test_top.env_h.scoreboard_h [write_drv STIM]  s=0  r=0
# UVM_INFO sr_scoreboard.sv(98) @ 85: uvm_test_top.env_h.scoreboard_h [
#  [ PASS ]  s=0  r=0 ||  q=0 qbar=1
# s=0.000000 r=0.000000 axb=0 coverage %=100.00
# UVM_INFO sr_scoreboard.sv(81) @ 90: uvm_test_top.env_h.scoreboard_h [write_mon OUT ]  s=0  r=0 ||  q=0 qbar=1
# UVM_INFO sr_scoreboard.sv(49) @ 90: uvm_test_top.env_h.scoreboard_h [write_drv STIM]  s=1  r=0
# UVM_INFO sr_scoreboard.sv(98) @ 90: uvm_test_top.env_h.scoreboard_h [
#  [ PASS ]  s=0  r=0 ||  q=0 qbar=1
# s=1.000000 r=0.000000 axb=0 coverage %=100.00
# UVM_INFO sr_scoreboard.sv(81) @ 95: uvm_test_top.env_h.scoreboard_h [write_mon OUT ]  s=1  r=0 ||  q=1 qbar=1
# UVM_INFO sr_scoreboard.sv(49) @ 95: uvm_test_top.env_h.scoreboard_h [write_drv STIM]  s=0  r=0
# s=0.000000 r=0.000000 axb=0 coverage %=100.00
# UVM_INFO sr_scoreboard.sv(81) @ 100: uvm_test_top.env_h.scoreboard_h [write_mon OUT ]  s=0  r=0 ||  q=1 qbar=0
# UVM_INFO sr_scoreboard.sv(49) @ 100: uvm_test_top.env_h.scoreboard_h [write_drv STIM]  s=0  r=1
# UVM_INFO sr_scoreboard.sv(98) @ 100: uvm_test_top.env_h.scoreboard_h [
#  [ PASS ]  s=0  r=0 ||  q=1 qbar=0
# s=0.000000 r=1.000000 axb=0 coverage %=100.00
# UVM_INFO sr_scoreboard.sv(81) @ 105: uvm_test_top.env_h.scoreboard_h [write_mon OUT ]  s=0  r=1 ||  q=0 qbar=0
# UVM_INFO sr_scoreboard.sv(49) @ 105: uvm_test_top.env_h.scoreboard_h [write_drv STIM]  s=0  r=0
# s=0.000000 r=0.000000 axb=0 coverage %=100.00
# UVM_INFO sr_scoreboard.sv(81) @ 110: uvm_test_top.env_h.scoreboard_h [write_mon OUT ]  s=0  r=0 ||  q=0 qbar=1
# UVM_INFO sr_scoreboard.sv(49) @ 110: uvm_test_top.env_h.scoreboard_h [write_drv STIM]  s=1  r=0
# UVM_INFO sr_scoreboard.sv(98) @ 110: uvm_test_top.env_h.scoreboard_h [
#  [ PASS ]  s=0  r=0 ||  q=0 qbar=1
# s=1.000000 r=0.000000 axb=0 coverage %=100.00
# UVM_INFO sr_scoreboard.sv(81) @ 115: uvm_test_top.env_h.scoreboard_h [write_mon OUT ]  s=1  r=0 ||  q=1 qbar=1
# UVM_INFO sr_scoreboard.sv(49) @ 115: uvm_test_top.env_h.scoreboard_h [write_drv STIM]  s=0  r=1
# s=0.000000 r=1.000000 axb=0 coverage %=100.00
# UVM_INFO sr_scoreboard.sv(81) @ 120: uvm_test_top.env_h.scoreboard_h [write_mon OUT ]  s=0  r=1 ||  q=0 qbar=0
# UVM_INFO sr_scoreboard.sv(49) @ 120: uvm_test_top.env_h.scoreboard_h [write_drv STIM]  s=1  r=0
# s=1.000000 r=0.000000 axb=0 coverage %=100.00
# UVM_INFO sr_scoreboard.sv(81) @ 125: uvm_test_top.env_h.scoreboard_h [write_mon OUT ]  s=1  r=0 ||  q=1 qbar=1
# UVM_INFO sr_scoreboard.sv(49) @ 125: uvm_test_top.env_h.scoreboard_h [write_drv STIM]  s=0  r=0
# s=0.000000 r=0.000000 axb=0 coverage %=100.00
# UVM_INFO sr_scoreboard.sv(81) @ 130: uvm_test_top.env_h.scoreboard_h [write_mon OUT ]  s=0  r=0 ||  q=1 qbar=0
# UVM_INFO sr_scoreboard.sv(49) @ 130: uvm_test_top.env_h.scoreboard_h [write_drv STIM]  s=0  r=1
# UVM_INFO sr_scoreboard.sv(98) @ 130: uvm_test_top.env_h.scoreboard_h [
#  [ PASS ]  s=0  r=0 ||  q=1 qbar=0
# s=0.000000 r=1.000000 axb=0 coverage %=100.00
# UVM_INFO sr_scoreboard.sv(81) @ 135: uvm_test_top.env_h.scoreboard_h [write_mon OUT ]  s=0  r=1 ||  q=0 qbar=0
# UVM_INFO sr_scoreboard.sv(49) @ 135: uvm_test_top.env_h.scoreboard_h [write_drv STIM]  s=1  r=0
# s=1.000000 r=0.000000 axb=0 coverage %=100.00
# UVM_INFO sr_scoreboard.sv(81) @ 140: uvm_test_top.env_h.scoreboard_h [write_mon OUT ]  s=1  r=0 ||  q=1 qbar=1
# UVM_INFO sr_scoreboard.sv(49) @ 140: uvm_test_top.env_h.scoreboard_h [write_drv STIM]  s=0  r=0
# s=0.000000 r=0.000000 axb=0 coverage %=100.00
# UVM_INFO sr_scoreboard.sv(81) @ 145: uvm_test_top.env_h.scoreboard_h [write_mon OUT ]  s=0  r=0 ||  q=1 qbar=0
# UVM_INFO sr_scoreboard.sv(49) @ 145: uvm_test_top.env_h.scoreboard_h [write_drv STIM]  s=0  r=1
# UVM_INFO sr_scoreboard.sv(98) @ 145: uvm_test_top.env_h.scoreboard_h [
#  [ PASS ]  s=0  r=0 ||  q=1 qbar=0
# s=0.000000 r=1.000000 axb=0 coverage %=100.00
# UVM_INFO sr_scoreboard.sv(81) @ 150: uvm_test_top.env_h.scoreboard_h [write_mon OUT ]  s=0  r=1 ||  q=0 qbar=0
# UVM_INFO sr_scoreboard.sv(49) @ 150: uvm_test_top.env_h.scoreboard_h [write_drv STIM]  s=1  r=1
# s=1.000000 r=1.000000 axb=1 coverage %=100.00
# UVM_INFO sr_scoreboard.sv(81) @ 155: uvm_test_top.env_h.scoreboard_h [write_mon OUT ]  s=1  r=1 ||  q=x qbar=1
# UVM_INFO sr_scoreboard.sv(49) @ 155: uvm_test_top.env_h.scoreboard_h [write_drv STIM]  s=1  r=1
# s=1.000000 r=1.000000 axb=1 coverage %=100.00
# UVM_INFO sr_scoreboard.sv(81) @ 160: uvm_test_top.env_h.scoreboard_h [write_mon OUT ]  s=1  r=1 ||  q=x qbar=1
# UVM_INFO sr_scoreboard.sv(49) @ 160: uvm_test_top.env_h.scoreboard_h [write_drv STIM]  s=0  r=1
# s=0.000000 r=1.000000 axb=0 coverage %=100.00
# UVM_INFO sr_scoreboard.sv(81) @ 165: uvm_test_top.env_h.scoreboard_h [write_mon OUT ]  s=0  r=1 ||  q=0 qbar=x
# UVM_INFO sr_scoreboard.sv(49) @ 165: uvm_test_top.env_h.scoreboard_h [write_drv STIM]  s=0  r=1
# s=0.000000 r=1.000000 axb=0 coverage %=100.00
# UVM_INFO sr_scoreboard.sv(81) @ 170: uvm_test_top.env_h.scoreboard_h [write_mon OUT ]  s=0  r=1 ||  q=0 qbar=x
# UVM_INFO sr_scoreboard.sv(49) @ 170: uvm_test_top.env_h.scoreboard_h [write_drv STIM]  s=0  r=0
# s=0.000000 r=0.000000 axb=0 coverage %=100.00
# UVM_INFO sr_scoreboard.sv(81) @ 175: uvm_test_top.env_h.scoreboard_h [write_mon OUT ]  s=0  r=0 ||  q=0 qbar=1
# UVM_INFO sr_scoreboard.sv(49) @ 175: uvm_test_top.env_h.scoreboard_h [write_drv STIM]  s=1  r=1
# UVM_INFO sr_scoreboard.sv(98) @ 175: uvm_test_top.env_h.scoreboard_h [
#  [ PASS ]  s=0  r=0 ||  q=0 qbar=1
# s=1.000000 r=1.000000 axb=1 coverage %=100.00
# UVM_INFO sr_scoreboard.sv(81) @ 180: uvm_test_top.env_h.scoreboard_h [write_mon OUT ]  s=1  r=1 ||  q=x qbar=1
# UVM_INFO sr_scoreboard.sv(49) @ 180: uvm_test_top.env_h.scoreboard_h [write_drv STIM]  s=0  r=1
# s=0.000000 r=1.000000 axb=0 coverage %=100.00
# UVM_INFO sr_scoreboard.sv(81) @ 185: uvm_test_top.env_h.scoreboard_h [write_mon OUT ]  s=0  r=1 ||  q=0 qbar=x
# UVM_INFO sr_scoreboard.sv(49) @ 185: uvm_test_top.env_h.scoreboard_h [write_drv STIM]  s=0  r=1
# s=0.000000 r=1.000000 axb=0 coverage %=100.00
# UVM_INFO sr_scoreboard.sv(81) @ 190: uvm_test_top.env_h.scoreboard_h [write_mon OUT ]  s=0  r=1 ||  q=0 qbar=x
# UVM_INFO sr_scoreboard.sv(49) @ 190: uvm_test_top.env_h.scoreboard_h [write_drv STIM]  s=0  r=0
# s=0.000000 r=0.000000 axb=0 coverage %=100.00
# UVM_INFO sr_scoreboard.sv(81) @ 195: uvm_test_top.env_h.scoreboard_h [write_mon OUT ]  s=0  r=0 ||  q=0 qbar=1
# UVM_INFO sr_scoreboard.sv(49) @ 195: uvm_test_top.env_h.scoreboard_h [write_drv STIM]  s=1  r=0
# UVM_INFO sr_scoreboard.sv(98) @ 195: uvm_test_top.env_h.scoreboard_h [
#  [ PASS ]  s=0  r=0 ||  q=0 qbar=1
# s=1.000000 r=0.000000 axb=0 coverage %=100.00
# UVM_INFO sr_scoreboard.sv(81) @ 200: uvm_test_top.env_h.scoreboard_h [write_mon OUT ]  s=1  r=0 ||  q=1 qbar=1
# UVM_INFO sr_scoreboard.sv(49) @ 200: uvm_test_top.env_h.scoreboard_h [write_drv STIM]  s=0  r=1
# s=0.000000 r=1.000000 axb=0 coverage %=100.00
# UVM_INFO sr_scoreboard.sv(81) @ 205: uvm_test_top.env_h.scoreboard_h [write_mon OUT ]  s=0  r=1 ||  q=0 qbar=0
# UVM_INFO sr_scoreboard.sv(49) @ 205: uvm_test_top.env_h.scoreboard_h [write_drv STIM]  s=0  r=1
# s=0.000000 r=1.000000 axb=0 coverage %=100.00
# UVM_INFO sr_scoreboard.sv(81) @ 210: uvm_test_top.env_h.scoreboard_h [write_mon OUT ]  s=0  r=1 ||  q=0 qbar=0
# UVM_INFO sr_scoreboard.sv(49) @ 210: uvm_test_top.env_h.scoreboard_h [write_drv STIM]  s=1  r=0
# s=1.000000 r=0.000000 axb=0 coverage %=100.00
# UVM_INFO sr_scoreboard.sv(81) @ 215: uvm_test_top.env_h.scoreboard_h [write_mon OUT ]  s=1  r=0 ||  q=1 qbar=1
# UVM_INFO sr_scoreboard.sv(49) @ 215: uvm_test_top.env_h.scoreboard_h [write_drv STIM]  s=1  r=1
# s=1.000000 r=1.000000 axb=1 coverage %=100.00
# UVM_INFO sr_scoreboard.sv(81) @ 220: uvm_test_top.env_h.scoreboard_h [write_mon OUT ]  s=1  r=1 ||  q=x qbar=0
# UVM_INFO sr_scoreboard.sv(49) @ 220: uvm_test_top.env_h.scoreboard_h [write_drv STIM]  s=1  r=1
# s=1.000000 r=1.000000 axb=1 coverage %=100.00
# UVM_INFO sr_scoreboard.sv(81) @ 225: uvm_test_top.env_h.scoreboard_h [write_mon OUT ]  s=1  r=1 ||  q=x qbar=0
# UVM_INFO sr_scoreboard.sv(49) @ 225: uvm_test_top.env_h.scoreboard_h [write_drv STIM]  s=0  r=1
# s=0.000000 r=1.000000 axb=0 coverage %=100.00
# UVM_INFO sr_scoreboard.sv(81) @ 230: uvm_test_top.env_h.scoreboard_h [write_mon OUT ]  s=0  r=1 ||  q=0 qbar=x
# UVM_INFO sr_scoreboard.sv(49) @ 230: uvm_test_top.env_h.scoreboard_h [write_drv STIM]  s=1  r=1
# s=1.000000 r=1.000000 axb=1 coverage %=100.00
# UVM_INFO sr_scoreboard.sv(81) @ 235: uvm_test_top.env_h.scoreboard_h [write_mon OUT ]  s=1  r=1 ||  q=x qbar=1
# UVM_INFO sr_scoreboard.sv(49) @ 235: uvm_test_top.env_h.scoreboard_h [write_drv STIM]  s=0  r=1
# s=0.000000 r=1.000000 axb=0 coverage %=100.00
# UVM_INFO sr_scoreboard.sv(81) @ 240: uvm_test_top.env_h.scoreboard_h [write_mon OUT ]  s=0  r=1 ||  q=0 qbar=x
# UVM_INFO sr_scoreboard.sv(49) @ 240: uvm_test_top.env_h.scoreboard_h [write_drv STIM]  s=1  r=1
# s=1.000000 r=1.000000 axb=1 coverage %=100.00
# UVM_INFO sr_scoreboard.sv(81) @ 245: uvm_test_top.env_h.scoreboard_h [write_mon OUT ]  s=1  r=1 ||  q=x qbar=1
# UVM_INFO sr_scoreboard.sv(49) @ 245: uvm_test_top.env_h.scoreboard_h [write_drv STIM]  s=0  r=1
# s=0.000000 r=1.000000 axb=0 coverage %=100.00
# UVM_INFO sr_scoreboard.sv(81) @ 250: uvm_test_top.env_h.scoreboard_h [write_mon OUT ]  s=0  r=1 ||  q=0 qbar=x
# UVM_INFO sr_scoreboard.sv(49) @ 250: uvm_test_top.env_h.scoreboard_h [write_drv STIM]  s=0  r=1
# s=0.000000 r=1.000000 axb=0 coverage %=100.00
# UVM_INFO sr_scoreboard.sv(81) @ 255: uvm_test_top.env_h.scoreboard_h [write_mon OUT ]  s=0  r=1 ||  q=0 qbar=x
# UVM_INFO sr_scoreboard.sv(49) @ 255: uvm_test_top.env_h.scoreboard_h [write_drv STIM]  s=1  r=0
# s=1.000000 r=0.000000 axb=0 coverage %=100.00
# UVM_INFO sr_scoreboard.sv(81) @ 260: uvm_test_top.env_h.scoreboard_h [write_mon OUT ]  s=1  r=0 ||  q=1 qbar=1
# UVM_INFO sr_scoreboard.sv(49) @ 260: uvm_test_top.env_h.scoreboard_h [write_drv STIM]  s=0  r=0
# s=0.000000 r=0.000000 axb=0 coverage %=100.00
# UVM_INFO sr_scoreboard.sv(81) @ 265: uvm_test_top.env_h.scoreboard_h [write_mon OUT ]  s=0  r=0 ||  q=1 qbar=0
# UVM_INFO sr_scoreboard.sv(49) @ 265: uvm_test_top.env_h.scoreboard_h [write_drv STIM]  s=1  r=0
# UVM_INFO sr_scoreboard.sv(98) @ 265: uvm_test_top.env_h.scoreboard_h [
#  [ PASS ]  s=0  r=0 ||  q=1 qbar=0
# s=1.000000 r=0.000000 axb=0 coverage %=100.00
# UVM_INFO sr_scoreboard.sv(81) @ 270: uvm_test_top.env_h.scoreboard_h [write_mon OUT ]  s=1  r=0 ||  q=1 qbar=0
# UVM_INFO sr_scoreboard.sv(49) @ 270: uvm_test_top.env_h.scoreboard_h [write_drv STIM]  s=0  r=0
# UVM_INFO sr_scoreboard.sv(98) @ 270: uvm_test_top.env_h.scoreboard_h [
#  [ PASS ]  s=1  r=0 ||  q=1 qbar=0
# s=0.000000 r=0.000000 axb=0 coverage %=100.00
# UVM_INFO sr_scoreboard.sv(81) @ 275: uvm_test_top.env_h.scoreboard_h [write_mon OUT ]  s=0  r=0 ||  q=1 qbar=0
# UVM_INFO sr_scoreboard.sv(49) @ 275: uvm_test_top.env_h.scoreboard_h [write_drv STIM]  s=1  r=0
# UVM_INFO sr_scoreboard.sv(98) @ 275: uvm_test_top.env_h.scoreboard_h [
#  [ PASS ]  s=0  r=0 ||  q=1 qbar=0
# s=1.000000 r=0.000000 axb=0 coverage %=100.00
# UVM_INFO sr_scoreboard.sv(81) @ 280: uvm_test_top.env_h.scoreboard_h [write_mon OUT ]  s=1  r=0 ||  q=1 qbar=0
# UVM_INFO sr_scoreboard.sv(49) @ 280: uvm_test_top.env_h.scoreboard_h [write_drv STIM]  s=0  r=0
# UVM_INFO sr_scoreboard.sv(98) @ 280: uvm_test_top.env_h.scoreboard_h [
#  [ PASS ]  s=1  r=0 ||  q=1 qbar=0
# s=0.000000 r=0.000000 axb=0 coverage %=100.00
# UVM_INFO sr_scoreboard.sv(81) @ 285: uvm_test_top.env_h.scoreboard_h [write_mon OUT ]  s=0  r=0 ||  q=1 qbar=0
# UVM_INFO sr_scoreboard.sv(49) @ 285: uvm_test_top.env_h.scoreboard_h [write_drv STIM]  s=1  r=0
# UVM_INFO sr_scoreboard.sv(98) @ 285: uvm_test_top.env_h.scoreboard_h [
#  [ PASS ]  s=0  r=0 ||  q=1 qbar=0
# s=1.000000 r=0.000000 axb=0 coverage %=100.00
# UVM_INFO sr_scoreboard.sv(81) @ 290: uvm_test_top.env_h.scoreboard_h [write_mon OUT ]  s=1  r=0 ||  q=1 qbar=0
# UVM_INFO sr_scoreboard.sv(49) @ 290: uvm_test_top.env_h.scoreboard_h [write_drv STIM]  s=0  r=0
# UVM_INFO sr_scoreboard.sv(98) @ 290: uvm_test_top.env_h.scoreboard_h [
#  [ PASS ]  s=1  r=0 ||  q=1 qbar=0
# s=0.000000 r=0.000000 axb=0 coverage %=100.00
# UVM_INFO sr_scoreboard.sv(81) @ 295: uvm_test_top.env_h.scoreboard_h [write_mon OUT ]  s=0  r=0 ||  q=1 qbar=0
# UVM_INFO sr_scoreboard.sv(49) @ 295: uvm_test_top.env_h.scoreboard_h [write_drv STIM]  s=1  r=0
# UVM_INFO sr_scoreboard.sv(98) @ 295: uvm_test_top.env_h.scoreboard_h [
#  [ PASS ]  s=0  r=0 ||  q=1 qbar=0
# s=1.000000 r=0.000000 axb=0 coverage %=100.00
# UVM_INFO sr_scoreboard.sv(81) @ 300: uvm_test_top.env_h.scoreboard_h [write_mon OUT ]  s=1  r=0 ||  q=1 qbar=0
# UVM_INFO sr_scoreboard.sv(49) @ 300: uvm_test_top.env_h.scoreboard_h [write_drv STIM]  s=0  r=0
# UVM_INFO sr_scoreboard.sv(98) @ 300: uvm_test_top.env_h.scoreboard_h [
#  [ PASS ]  s=1  r=0 ||  q=1 qbar=0
# s=0.000000 r=0.000000 axb=0 coverage %=100.00
# UVM_INFO sr_scoreboard.sv(81) @ 305: uvm_test_top.env_h.scoreboard_h [write_mon OUT ]  s=0  r=0 ||  q=1 qbar=0
# UVM_INFO sr_scoreboard.sv(49) @ 305: uvm_test_top.env_h.scoreboard_h [write_drv STIM]  s=1  r=0
# UVM_INFO sr_scoreboard.sv(98) @ 305: uvm_test_top.env_h.scoreboard_h [
#  [ PASS ]  s=0  r=0 ||  q=1 qbar=0
# s=1.000000 r=0.000000 axb=0 coverage %=100.00
# UVM_INFO sr_scoreboard.sv(81) @ 310: uvm_test_top.env_h.scoreboard_h [write_mon OUT ]  s=1  r=0 ||  q=1 qbar=0
# UVM_INFO sr_scoreboard.sv(49) @ 310: uvm_test_top.env_h.scoreboard_h [write_drv STIM]  s=0  r=0
# UVM_INFO sr_scoreboard.sv(98) @ 310: uvm_test_top.env_h.scoreboard_h [
#  [ PASS ]  s=1  r=0 ||  q=1 qbar=0
# s=0.000000 r=0.000000 axb=0 coverage %=100.00
# UVM_INFO sr_scoreboard.sv(81) @ 315: uvm_test_top.env_h.scoreboard_h [write_mon OUT ]  s=0  r=0 ||  q=1 qbar=0
# UVM_INFO sr_scoreboard.sv(49) @ 315: uvm_test_top.env_h.scoreboard_h [write_drv STIM]  s=1  r=0
# UVM_INFO sr_scoreboard.sv(98) @ 315: uvm_test_top.env_h.scoreboard_h [
#  [ PASS ]  s=0  r=0 ||  q=1 qbar=0
# s=1.000000 r=0.000000 axb=0 coverage %=100.00
# UVM_INFO sr_scoreboard.sv(81) @ 320: uvm_test_top.env_h.scoreboard_h [write_mon OUT ]  s=1  r=0 ||  q=1 qbar=0
# UVM_INFO sr_scoreboard.sv(49) @ 320: uvm_test_top.env_h.scoreboard_h [write_drv STIM]  s=0  r=0
# UVM_INFO sr_scoreboard.sv(98) @ 320: uvm_test_top.env_h.scoreboard_h [
#  [ PASS ]  s=1  r=0 ||  q=1 qbar=0
# s=0.000000 r=0.000000 axb=0 coverage %=100.00
# UVM_INFO sr_scoreboard.sv(81) @ 325: uvm_test_top.env_h.scoreboard_h [write_mon OUT ]  s=0  r=0 ||  q=1 qbar=0
# UVM_INFO sr_scoreboard.sv(49) @ 325: uvm_test_top.env_h.scoreboard_h [write_drv STIM]  s=1  r=0
# UVM_INFO sr_scoreboard.sv(98) @ 325: uvm_test_top.env_h.scoreboard_h [
#  [ PASS ]  s=0  r=0 ||  q=1 qbar=0
# s=1.000000 r=0.000000 axb=0 coverage %=100.00
# UVM_INFO sr_scoreboard.sv(81) @ 330: uvm_test_top.env_h.scoreboard_h [write_mon OUT ]  s=1  r=0 ||  q=1 qbar=0
# UVM_INFO sr_scoreboard.sv(49) @ 330: uvm_test_top.env_h.scoreboard_h [write_drv STIM]  s=0  r=0
# UVM_INFO sr_scoreboard.sv(98) @ 330: uvm_test_top.env_h.scoreboard_h [
#  [ PASS ]  s=1  r=0 ||  q=1 qbar=0
# s=0.000000 r=0.000000 axb=0 coverage %=100.00
# UVM_INFO sr_scoreboard.sv(81) @ 335: uvm_test_top.env_h.scoreboard_h [write_mon OUT ]  s=0  r=0 ||  q=1 qbar=0
# UVM_INFO sr_scoreboard.sv(49) @ 335: uvm_test_top.env_h.scoreboard_h [write_drv STIM]  s=1  r=0
# UVM_INFO sr_scoreboard.sv(98) @ 335: uvm_test_top.env_h.scoreboard_h [
#  [ PASS ]  s=0  r=0 ||  q=1 qbar=0
# s=1.000000 r=0.000000 axb=0 coverage %=100.00
